Limited Information Goodness of Fit Tests for Binary Factor Models • lavaan.bingof
…
    Skip to contents

lavaan.bingof

This is the accompanying R package for the paper

Goodness-of-fit tests for composite likelihood estimation under simple random and complex survey sampling

Usage

library(lavaan.bingof)

# Simulate binary data
(dat <- gen_data_bin(n = 1000, seed = 123))
#> # A tibble: 1,000 × 5
#>    y1    y2    y3    y4    y5   
#>    <ord> <ord> <ord> <ord> <ord>
#>  1 1     0     0     1     0    
#>  2 1     1     1     1     1    
#>  3 1     1     0     1     1    
#>  4 1     1     0     1     1    
#>  5 1     1     1     1     0    
#>  6 1     1     1     1     1    
#>  7 1     1     0     1     1    
#>  8 0     0     0     1     1    
#>  9 1     1     0     1     1    
#> 10 1     0     0     1     1    
#> # ℹ 990 more rows
…
