…
1.  Generate simulated data either from an infinite population or from a
    finite population using a complex sampling procedure.

2.  Obtain the test statistic values, the degrees of freedom of these
    chi-square variates, and corresponding $p$-values to determine
    goodness-of-fit.

3.  Wrap functions 1 and 2 in a convenient way to perform simulation
    studies for Type I errors and power.

### Create a simulated data set of ordinal binary responses

``` r
(dat <- gen_data_bin(n = 1000, seed = 123))
#> # A tibble: 1,000 × 5
#>    y1    y2    y3    y4    y5   
#>    <ord> <ord> <ord> <ord> <ord>
#>  1 1     0     0     1     0    
#>  2 1     1     1     1     1    
#>  3 1     1     0     1     1    
#>  4 1     1     0     1     1    
#>  5 1     1     1     1     0    
#>  6 1     1     1     1     1    
#>  7 1     1     0     1     1    
#>  8 0     0     0     1     1    
#>  9 1     1     0     1     1    
#> 10 1     0     0     1     1    
#> # ℹ 990 more rows
```
…
### Test statistics under a complex sampling scheme

``` r
# Simulate a two-stage stratified cluster sampling with 50 PSUs sampled per
# stratum, and 1 cluster sampled within each PSU.
(dat <- gen_data_bin_complex3(population = make_population(1), npsu = 50, 
                              seed = 9423))
#> # A tibble: 3,040 × 9
#>    type  school class    wt y1    y2    y3    y4    y5   
#>    <chr> <chr>  <chr> <dbl> <ord> <ord> <ord> <ord> <ord>
#>  1 A     A105   A105o 0.651 1     1     1     1     1    
#>  2 A     A105   A105o 0.651 1     1     1     1     1    
#>  3 A     A105   A105o 0.651 1     1     1     1     1    
#>  4 A     A105   A105o 0.651 1     1     1     1     1    
#>  5 A     A105   A105o 0.651 1     1     0     1     1    
#>  6 A     A105   A105o 0.651 1     1     1     1     1    
#>  7 A     A105   A105o 0.651 1     1     0     1     1    
#>  8 A     A105   A105o 0.651 1     1     1     1     1    
#>  9 A     A105   A105o 0.651 1     1     1     1     1    
#> 10 A     A105   A105o 0.651 1     1     1     1     1    
#> # ℹ 3,030 more rows
…
