Generate an informative (weighted) data sample according to model_no — gen_data_bin_wt • lavaan.bingof
…
n
(numeric > 0) Sample size.

popfac
The multiplier for the population size. That is, the population size will be set to popfac * n.

    Value

    A tibble() containing ordinal binary values (0/1) for the items.

    Examples

gen_data_bin_wt(1)
#> # A tibble: 1,000 × 6
#>       wt y1    y2    y3    y4    y5   
#>    <dbl> <ord> <ord> <ord> <ord> <ord>
#>  1 0.720 1     1     1     1     1    
#>  2 1.00  1     1     0     1     1    
#>  3 1.02  1     0     1     1     1    
#>  4 0.837 1     0     1     0     1    
#>  5 0.700 1     1     0     0     1    
#>  6 0.692 1     1     1     0     1    
#>  7 0.623 0     0     0     0     1    
#>  8 0.778 1     1     1     1     1    
#>  9 1.05  1     0     1     0     1    
#> 10 1.30  1     1     1     0     1    
#> # ℹ 990 more rows
…
