Complex sampling procedure • lavaan.bingof
…
Performing a complex sampling procedure

There are three functions that perform the three complex sampling procedures described earlier.

# Stratified sampling
(samp1 <- gen_data_bin_strat(population = pop, seed = 123))
#> # A tibble: 3,000 × 9
#>    type  school class    wt y1    y2    y3    y4    y5   
#>    <chr> <chr>  <chr> <dbl> <ord> <ord> <ord> <ord> <ord>
#>  1 A     A1     A1ab  0.599 1     1     1     1     1    
#>  2 A     A1     A1y   0.599 1     1     1     1     1    
#>  3 A     A10    A10a  0.599 1     1     1     1     1    
#>  4 A     A10    A10b  0.599 1     1     1     0     1    
#>  5 A     A10    A10i  0.599 1     1     1     1     1    
#>  6 A     A10    A10s  0.599 1     1     1     1     0    
#>  7 A     A101   A101g 0.599 1     1     0     1     1    
#>  8 A     A101   A101l 0.599 1     1     1     1     1    
#>  9 A     A101   A101q 0.599 1     1     0     1     1    
#> 10 A     A101   A101v 0.599 1     1     1     1     1    
#> # ℹ 2,990 more rows

# Two-stage cluster sampling
(samp2 <- gen_data_bin_clust(population = pop, seed = 123))
#> # A tibble: 3,155 × 9
#>    type  school class    wt y1    y2    y3    y4    y5   
#>    <chr> <chr>  <chr> <dbl> <ord> <ord> <ord> <ord> <ord>
#>  1 A     A100   A100l  1.48 1     1     1     1     1    
#>  2 A     A100   A100l  1.48 1     1     0     1     1    
#>  3 A     A100   A100l  1.48 1     1     1     1     1    
#>  4 A     A100   A100l  1.48 1     1     1     0     1    
#>  5 A     A100   A100l  1.48 1     1     1     1     1    
#>  6 A     A100   A100l  1.48 1     1     1     1     1    
#>  7 A     A100   A100l  1.48 1     1     0     1     1    
#>  8 A     A100   A100l  1.48 1     1     1     1     0    
#>  9 A     A100   A100l  1.48 1     1     0     0     1    
#> 10 A     A100   A100l  1.48 1     1     1     1     1    
#> # ℹ 3,145 more rows

# Two-stage stratified cluster sampling
(samp3 <- gen_data_bin_strcl(population = pop, seed = 123))
#> # A tibble: 3,039 × 9
#>    type  school class    wt y1    y2    y3    y4    y5   
#>    <chr> <chr>  <chr> <dbl> <ord> <ord> <ord> <ord> <ord>
#>  1 A     A109   A109b 0.740 1     1     1     1     1    
#>  2 A     A109   A109b 0.740 1     1     1     1     1    
#>  3 A     A109   A109b 0.740 1     1     1     0     1    
#>  4 A     A109   A109b 0.740 1     1     1     1     1    
#>  5 A     A109   A109b 0.740 1     1     1     1     1    
#>  6 A     A109   A109b 0.740 1     1     1     0     1    
#>  7 A     A109   A109b 0.740 1     1     1     1     1    
#>  8 A     A109   A109b 0.740 1     1     1     1     1    
#>  9 A     A109   A109b 0.740 1     1     0     1     1    
#> 10 A     A109   A109b 0.740 1     1     1     1     1    
#> # ℹ 3,029 more rows
…
