Details about the complex sampling procedure • lavaan.bingof
…
Performing a complex sampling procedure

There are three functions that perform the three complex sampling
procedures described earlier.

# Stratified sampling
(samp1 <- gen_data_bin_complex1(population = pop, seed = 123))
#> # A tibble: 3,000 × 9
#>    type  school class    wt y1    y2    y3    y4    y5   
#>    <chr>  <int> <chr> <dbl> <ord> <ord> <ord> <ord> <ord>
#>  1 A          1 ab    0.599 1     1     1     1     1    
#>  2 A          1 y     0.599 1     1     1     1     1    
#>  3 A          2 j     0.599 1     1     1     1     1    
#>  4 A          2 x     0.599 1     1     1     1     1    
#>  5 A          3 ae    0.599 1     1     0     1     1    
#>  6 A          3 v     0.599 1     1     1     0     1    
#>  7 A          4 k     0.599 1     1     1     1     1    
#>  8 A          4 l     0.599 1     1     1     1     1    
#>  9 A          5 b     0.599 1     1     0     1     1    
#> 10 A          5 f     0.599 1     1     1     0     1    
#> # ℹ 2,990 more rows

# Two-stage cluster sampling
(samp2 <- gen_data_bin_complex2(population = pop, seed = 123))
#> # A tibble: 3,303 × 9
#>    type  school class    wt y1    y2    y3    y4    y5   
#>    <chr>  <int> <chr> <dbl> <ord> <ord> <ord> <ord> <ord>
#>  1 A          8 s      1.41 1     1     1     1     1    
#>  2 A          8 s      1.41 1     1     0     1     1    
#>  3 A          8 s      1.41 1     1     1     1     1    
#>  4 A          8 s      1.41 1     1     1     1     1    
#>  5 A          8 s      1.41 1     1     1     1     1    
#>  6 A          8 s      1.41 1     1     1     1     1    
#>  7 A          8 s      1.41 1     1     1     1     1    
#>  8 A          8 s      1.41 1     1     1     1     1    
#>  9 A          8 s      1.41 1     1     0     1     1    
#> 10 A          8 s      1.41 1     1     1     1     1    
#> # ℹ 3,293 more rows

# Two-stage stratified cluster sampling
(samp3 <- gen_data_bin_complex3(population = pop, seed = 123))
#> # A tibble: 3,007 × 9
#>    type  school class    wt y1    y2    y3    y4    y5   
#>    <chr>  <int> <chr> <dbl> <ord> <ord> <ord> <ord> <ord>
#>  1 A          7 ae    0.887 1     1     1     1     1    
#>  2 A          7 ae    0.887 1     1     1     0     1    
#>  3 A          7 ae    0.887 1     1     1     1     1    
#>  4 A          7 ae    0.887 1     0     0     1     1    
#>  5 A          7 ae    0.887 1     1     0     1     1    
#>  6 A          7 ae    0.887 1     1     1     1     1    
#>  7 A          7 ae    0.887 1     1     1     1     1    
#>  8 A          7 ae    0.887 1     1     1     1     1    
#>  9 A          7 ae    0.887 1     1     0     1     1    
#> 10 A          7 ae    0.887 1     1     1     1     1    
#> # ℹ 2,997 more rows
…
